{
  "files": {
    "main.css": "/static/css/main.f37b4ec3.chunk.css",
    "main.js": "/static/js/main.e85cee8f.chunk.js",
    "main.js.map": "/static/js/main.e85cee8f.chunk.js.map",
    "runtime-main.js": "/static/js/runtime-main.2ed82ed8.js",
    "runtime-main.js.map": "/static/js/runtime-main.2ed82ed8.js.map",
    "static/js/2.9577f4f9.chunk.js": "/static/js/2.9577f4f9.chunk.js",
    "static/js/2.9577f4f9.chunk.js.map": "/static/js/2.9577f4f9.chunk.js.map",
    "index.html": "/index.html",
    "precache-manifest.ce36805fb39c3764c4ef919b97fb4551.js": "/precache-manifest.ce36805fb39c3764c4ef919b97fb4551.js",
    "service-worker.js": "/service-worker.js",
    "static/css/main.f37b4ec3.chunk.css.map": "/static/css/main.f37b4ec3.chunk.css.map"
  },
  "entrypoints": [
    "static/js/runtime-main.2ed82ed8.js",
    "static/js/2.9577f4f9.chunk.js",
    "static/css/main.f37b4ec3.chunk.css",
    "static/js/main.e85cee8f.chunk.js"
  ]
}